…
- belong *exclusively* to the genre *“Drama”*;
- don’t belong *exclusively* to the genre *“Drama”*;
- were filmed *after* the year 2000;
- were filmed in 1999 *or* 2000;
- have *more than* 4.5 stars, and were filmed *before* 1995.

``` r
### ERROR HERE ###
filter(movieLens, genres == "Drama") 
```

    ## # A tibble: 7,757 × 7
    ##    movieId title                             year genres userId rating timestamp
    ##      <int> <chr>                            <int> <fct>   <int>  <dbl>     <int>
    ##  1      31 Dangerous Minds                   1995 Drama       1    2.5    1.26e9
    ##  2    1172 Cinema Paradiso (Nuovo cinema P…  1989 Drama       1    4      1.26e9
    ##  3    1293 Gandhi                            1982 Drama       1    2      1.26e9
    ##  4      62 Mr. Holland's Opus                1995 Drama       2    3      8.35e8
    ##  5     261 Little Women                      1994 Drama       2    4      8.35e8
    ##  6     300 Quiz Show                         1994 Drama       2    3      8.35e8
    ##  7     508 Philadelphia                      1993 Drama       2    4      8.35e8
    ##  8     537 Sirens                            1994 Drama       2    4      8.35e8
    ##  9    2702 Summer of Sam                     1999 Drama       3    3.5    1.30e9
    ## 10    3949 Requiem for a Dream               2000 Drama       3    5      1.30e9
    ## # ℹ 7,747 more rows

``` r
filter(movieLens, !genres == "Drama")
```

    ## # A tibble: 92,247 × 7
    ##    movieId title                            year genres  userId rating timestamp
    ##      <int> <chr>                           <int> <fct>    <int>  <dbl>     <int>
    ##  1    1029 Dumbo                            1941 Animat…      1    3      1.26e9
    ##  2    1061 Sleepers                         1996 Thrill…      1    3      1.26e9
    ##  3    1129 Escape from New York             1981 Action…      1    2      1.26e9
    ##  4    1263 Deer Hunter, The                 1978 Drama|…      1    2      1.26e9
    ##  5    1287 Ben-Hur                          1959 Action…      1    2      1.26e9
    ##  6    1339 Dracula (Bram Stoker's Dracula)  1992 Fantas…      1    3.5    1.26e9
    ##  7    1343 Cape Fear                        1991 Thrill…      1    2      1.26e9
    ##  8    1371 Star Trek: The Motion Picture    1979 Advent…      1    2.5    1.26e9
    ##  9    1405 Beavis and Butt-Head Do America  1996 Advent…      1    1      1.26e9
    ## 10    1953 French Connection, The           1971 Action…      1    4      1.26e9
    ## # ℹ 92,237 more rows

``` r
# This includes movies filmed in the year 2000, not just after, so I will remove the equal sign
filter(movieLens, year > 2000) 
```

    ## # A tibble: 25,481 × 7
    ##    movieId title                             year genres userId rating timestamp
    ##      <int> <chr>                            <int> <fct>   <int>  <dbl>     <int>
    ##  1    5349 Spider-Man                        2002 Actio…      3    3      1.30e9
    ##  2    5669 Bowling for Columbine             2002 Docum…      3    3.5    1.30e9
    ##  3    6377 Finding Nemo                      2003 Adven…      3    3      1.30e9
    ##  4    7153 Lord of the Rings: The Return o…  2003 Actio…      3    2.5    1.30e9
    ##  5    7361 Eternal Sunshine of the Spotles…  2004 Drama…      3    3      1.30e9
    ##  6    8622 Fahrenheit 9/11                   2004 Docum…      3    3.5    1.30e9
    ##  7    8636 Spider-Man 2                      2004 Actio…      3    3      1.30e9
    ##  8   44191 V for Vendetta                    2006 Actio…      3    3.5    1.30e9
    ##  9   48783 Flags of Our Fathers              2006 Drama…      3    4.5    1.30e9
    ## 10   50068 Letters from Iwo Jima             2006 Drama…      3    4.5    1.30e9
    ## # ℹ 25,471 more rows

``` r
# This has month == 2000 instead of year == 2000, so it will miss movies filmed in 2000
filter(movieLens, year == 1999 | year == 2000)
```

    ## # A tibble: 9,088 × 7
    ##    movieId title                             year genres userId rating timestamp
    ##      <int> <chr>                            <int> <fct>   <int>  <dbl>     <int>
    ##  1    2694 Big Daddy                         1999 Comedy      3    3      1.30e9
    ##  2    2702 Summer of Sam                     1999 Drama       3    3.5    1.30e9
    ##  3    2762 Sixth Sense, The                  1999 Drama…      3    3.5    1.30e9
    ##  4    2841 Stir of Echoes                    1999 Horro…      3    4      1.30e9
    ##  5    2858 American Beauty                   1999 Drama…      3    4      1.30e9
    ##  6    2959 Fight Club                        1999 Actio…      3    5      1.30e9
    ##  7    3510 Frequency                         2000 Drama…      3    4      1.30e9
    ##  8    3949 Requiem for a Dream               2000 Drama       3    5      1.30e9
    ##  9   27369 Daria: Is It Fall Yet?            2000 Anima…      3    3.5    1.30e9
    ## 10    2628 Star Wars: Episode I - The Phan…  1999 Actio…      4    5      9.50e8
    ## # ℹ 9,078 more rows

``` r
# If we want both conditions to be met, we need to use &, not a comma 
filter(movieLens, rating > 4.5 & year < 1995)
```

    ## # A tibble: 8,386 × 7
    ##    movieId title                             year genres userId rating timestamp
    ##      <int> <chr>                            <int> <fct>   <int>  <dbl>     <int>
    ##  1     265 Like Water for Chocolate (Como …  1992 Drama…      2      5    8.35e8
    ##  2     266 Legends of the Fall               1994 Drama…      2      5    8.35e8
    ##  3     551 Nightmare Before Christmas, The   1993 Anima…      2      5    8.35e8
    ##  4     589 Terminator 2: Judgment Day        1991 Actio…      2      5    8.35e8
    ##  5     590 Dances with Wolves                1990 Adven…      2      5    8.35e8
    ##  6     592 Batman                            1989 Actio…      2      5    8.35e8
    ##  7     318 Shawshank Redemption, The         1994 Crime…      3      5    1.30e9
    ##  8     356 Forrest Gump                      1994 Comed…      3      5    1.30e9
    ##  9    1197 Princess Bride, The               1987 Actio…      3      5    1.30e9
    ## 10     260 Star Wars: Episode IV - A New H…  1977 Actio…      4      5    9.50e8
    ## # ℹ 8,376 more rows
…
``` r
### ERROR HERE ###
movieLens %>%
  filter(!genres == "Drama") %>%
  select(title, genres,everything())
```

    ## # A tibble: 92,247 × 7
    ##    title                           genres  movieId  year userId rating timestamp
    ##    <chr>                           <fct>     <int> <int>  <int>  <dbl>     <int>
    ##  1 Dumbo                           Animat…    1029  1941      1    3      1.26e9
    ##  2 Sleepers                        Thrill…    1061  1996      1    3      1.26e9
    ##  3 Escape from New York            Action…    1129  1981      1    2      1.26e9
    ##  4 Deer Hunter, The                Drama|…    1263  1978      1    2      1.26e9
    ##  5 Ben-Hur                         Action…    1287  1959      1    2      1.26e9
    ##  6 Dracula (Bram Stoker's Dracula) Fantas…    1339  1992      1    3.5    1.26e9
    ##  7 Cape Fear                       Thrill…    1343  1991      1    2      1.26e9
    ##  8 Star Trek: The Motion Picture   Advent…    1371  1979      1    2.5    1.26e9
    ##  9 Beavis and Butt-Head Do America Advent…    1405  1996      1    1      1.26e9
    ## 10 French Connection, The          Action…    1953  1971      1    4      1.26e9
    ## # ℹ 92,237 more rows
…
Each entry of the movieLens table corresponds to a movie rating by a
user. Therefore, if more than one user rated the same movie, there will
be several entries for the same movie. I want to find out how many times
each movie has been reviewed, or in other words, how many times each
movie title appears in the dataset.

``` r
movieLens %>%
  group_by(title) %>%
  tally()
```

    ## # A tibble: 8,832 × 2
    ##    title                                  n
    ##    <chr>                              <int>
    ##  1 "\"Great Performances\" Cats"          2
    ##  2 "$9.99"                                3
    ##  3 "'Hellboy': The Seeds of Creation"     1
    ##  4 "'Neath the Arizona Skies"             1
    ##  5 "'Round Midnight"                      2
    ##  6 "'Salem's Lot"                         1
    ##  7 "'Til There Was You"                   4
    ##  8 "'burbs, The"                         19
    ##  9 "'night Mother"                        3
    ## 10 "(500) Days of Summer"                45
    ## # ℹ 8,822 more rows
…
## Exercise 4: Calculating with `group_by()`

We can calculate the mean rating by year, and store it in a new column
called `avg_rating`:

``` r
movieLens %>%
  group_by(year) %>%
  summarize(avg_rating = mean(rating))
```

    ## # A tibble: 104 × 2
    ##     year avg_rating
    ##    <int>      <dbl>
    ##  1  1902       4.33
    ##  2  1915       3   
    ##  3  1916       3.5 
    ##  4  1917       4.25
    ##  5  1918       4.25
    ##  6  1919       3   
    ##  7  1920       3.7 
    ##  8  1921       4.42
    ##  9  1922       3.80
    ## 10  1923       4.17
    ## # ℹ 94 more rows

Using `summarize()`, we can find the minimum and the maximum rating by
title, stored under columns named `min_rating`, and `max_rating`,
respectively.

``` r
### ERROR HERE ###
movieLens %>%
  mutate(min_rating = min(rating), 
         max_rating = max(rating))
```

    ## # A tibble: 100,004 × 9
    ##    movie_id title     year genres user_id rating timestamp min_rating max_rating
    ##       <int> <chr>    <int> <fct>    <int>  <dbl>     <int>      <dbl>      <dbl>
    ##  1       31 Dangero…  1995 Drama        1    2.5    1.26e9        0.5          5
    ##  2     1029 Dumbo     1941 Anima…       1    3      1.26e9        0.5          5
    ##  3     1061 Sleepers  1996 Thril…       1    3      1.26e9        0.5          5
    ##  4     1129 Escape …  1981 Actio…       1    2      1.26e9        0.5          5
    ##  5     1172 Cinema …  1989 Drama        1    4      1.26e9        0.5          5
    ##  6     1263 Deer Hu…  1978 Drama…       1    2      1.26e9        0.5          5
    ##  7     1287 Ben-Hur   1959 Actio…       1    2      1.26e9        0.5          5
    ##  8     1293 Gandhi    1982 Drama        1    2      1.26e9        0.5          5
    ##  9     1339 Dracula…  1992 Fanta…       1    3.5    1.26e9        0.5          5
    ## 10     1343 Cape Fe…  1991 Thril…       1    2      1.26e9        0.5          5
    ## # ℹ 99,994 more rows
…
